{
    "items": [
        {
            "code": "3250391318353",
            "price_count": 27,
            "id": 135,
            "source": "off",
            "product_name": "Boisson au soja nature BIO",
            "product_quantity": 1000,
            "product_quantity_unit": null,
            "categories_tags": [],
            "brands": "Regain Bio,Regain",
            "brands_tags": [],
            "labels_tags": [],
            "image_url": "https://images.openfoodfacts.net/images/products/325/039/131/8353/front_fr.76.400.jpg",
            "nutriscore_grade": null,
            "ecoscore_grade": null,
            "nova_group": null,
            "unique_scans_n": 22,
            "created": "2024-02-17T22:54:57.507817+01:00",
            "updated": "2024-03-15T17:22:50.774222+01:00"
        },
        {
            "code": "3250391737284",
            "price_count": 18,
            "id": 145,
            "source": "off",
            "product_name": "Noir dégustation  pur beurre de cacao 74% de cacao BIO",
            "product_quantity": 100,
            "product_quantity_unit": null,
            "categories_tags": [],
            "brands": "Ivoria",
            "brands_tags": [],
            "labels_tags": [],
            "image_url": "https://images.openfoodfacts.net/images/products/325/039/173/7284/front_fr.64.400.jpg",
            "nutriscore_grade": null,
            "ecoscore_grade": null,
            "nova_group": null,
            "unique_scans_n": 25,
            "created": "2024-02-17T22:54:59.734930+01:00",
            "updated": "2024-02-17T23:16:04.464582+01:00"
        },
        {
            "code": "3250390005902",
            "price_count": 8,
            "id": 142,
            "source": "off",
            "product_name": "Maïs doux tendre",
            "product_quantity": 300,
            "product_quantity_unit": null,
            "categories_tags": [],
            "brands": "Saint eloi",
            "brands_tags": [],
            "labels_tags": [],
            "image_url": "https://images.openfoodfacts.net/images/products/325/039/000/5902/front_fr.71.400.jpg",
            "nutriscore_grade": null,
            "ecoscore_grade": null,
            "nova_group": null,
            "unique_scans_n": 20,
            "created": "2024-02-17T22:54:58.665913+01:00",
            "updated": "2024-02-17T23:16:09.292603+01:00"
        },
        {
            "code": "7613034227775",
            "price_count": 8,
            "id": 139,
            "source": "off",
            "product_name": "RICORE Original, Café & Chicorée, Recharge 180g",
            "product_quantity": 180,
            "product_quantity_unit": null,
            "categories_tags": [],
            "brands": "Nestlé",
            "brands_tags": [],
            "labels_tags": [],
            "image_url": "https://images.openfoodfacts.net/images/products/761/303/422/7775/front_fr.151.400.jpg",
            "nutriscore_grade": null,
            "ecoscore_grade": null,
            "nova_group": null,
            "unique_scans_n": 33,
            "created": "2024-02-17T22:54:58.600093+01:00",
            "updated": "2024-02-17T23:16:05.715917+01:00"
        },
        {
            "code": "3973467869701",
            "price_count": 7,
            "id": 178,
            "source": null,
            "product_name": null,
            "product_quantity": null,
            "product_quantity_unit": null,
            "categories_tags": [],
            "brands": null,
            "brands_tags": [],
            "labels_tags": [],
            "image_url": null,
            "nutriscore_grade": null,
            "ecoscore_grade": null,
            "nova_group": null,
            "unique_scans_n": 0,
            "created": "2024-02-17T22:55:07.267586+01:00",
            "updated": "2024-02-27T09:11:22.840301+01:00"
        },
        {
            "code": "3250390444268",
            "price_count": 6,
            "id": 154,
            "source": "off",
            "product_name": "Dés de fromage aux herbes",
            "product_quantity": 300,
            "product_quantity_unit": null,
            "categories_tags": [],
            "brands": "Paturages",
            "brands_tags": [],
            "labels_tags": [],
            "image_url": "https://images.openfoodfacts.net/images/products/325/039/044/4268/front_fr.23.400.jpg",
            "nutriscore_grade": null,
            "ecoscore_grade": null,
            "nova_group": null,
            "unique_scans_n": 9,
            "created": "2024-02-17T22:55:01.179706+01:00",
            "updated": "2024-02-17T23:16:05.660711+01:00"
        },
        {
            "code": "3250391318322",
            "price_count": 6,
            "id": 143,
            "source": "off",
            "product_name": "Boisson au soja à la vanille source de calcium bio",
            "product_quantity": 1000,
            "product_quantity_unit": null,
            "categories_tags": [],
            "brands": "Regain bio,Regain,Sélection des Mousquetaires,Les Mousquetaires",
            "brands_tags": [],
            "labels_tags": [],
            "image_url": "https://images.openfoodfacts.net/images/products/325/039/131/8322/front_fr.60.400.jpg",
            "nutriscore_grade": null,
            "ecoscore_grade": null,
            "nova_group": null,
            "unique_scans_n": 21,
            "created": "2024-02-17T22:54:58.688981+01:00",
            "updated": "2024-02-17T23:16:05.736065+01:00"
        },
        {
            "code": "3564707000550",
            "price_count": 6,
            "id": 281,
            "source": "off",
            "product_name": "Lait demi-écrémé bio bouteille",
            "product_quantity": 6000,
            "product_quantity_unit": null,
            "categories_tags": [],
            "brands": "Bio Village,Marque Repère",
            "brands_tags": [],
            "labels_tags": [],
            "image_url": "https://images.openfoodfacts.net/images/products/356/470/700/0550/front_fr.32.400.jpg",
            "nutriscore_grade": null,
            "ecoscore_grade": null,
            "nova_group": null,
            "unique_scans_n": 3,
            "created": "2024-02-18T19:39:23.521604+01:00",
            "updated": "2024-02-18T19:39:33.192614+01:00"
        },
        {
            "code": "3250391696949",
            "price_count": 6,
            "id": 150,
            "source": null,
            "product_name": null,
            "product_quantity": null,
            "product_quantity_unit": null,
            "categories_tags": [],
            "brands": null,
            "brands_tags": [],
            "labels_tags": [],
            "image_url": null,
            "nutriscore_grade": null,
            "ecoscore_grade": null,
            "nova_group": null,
            "unique_scans_n": 0,
            "created": "2024-02-17T22:55:00.977277+01:00",
            "updated": "2024-02-17T23:16:08.131928+01:00"
        },
        {
            "code": "3564700014516",
            "price_count": 5,
            "id": 278,
            "source": "off",
            "product_name": "Beurre de bretagne doux",
            "product_quantity": 500,
            "product_quantity_unit": null,
            "categories_tags": [],
            "brands": "Les Croisés,Marque Repère",
            "brands_tags": [],
            "labels_tags": [],
            "image_url": "https://images.openfoodfacts.net/images/products/356/470/001/4516/front_fr.47.400.jpg",
            "nutriscore_grade": null,
            "ecoscore_grade": null,
            "nova_group": null,
            "unique_scans_n": 18,
            "created": "2024-02-18T19:39:23.410285+01:00",
            "updated": "2024-02-18T19:39:34.509330+01:00"
        }
    ],
    "total": 60582,
    "page": 1,
    "size": 10,
    "pages": 6059
}
